{
  "orderData": {
    "shipments": [
      {
        "shipTo": {
          "name": "Test Test",
          "address1": "Neustädter Neuer Weg 22",
          "town": "Hamburg",
          "postcode": "20459",
          "isoCountry": "DE",
          "email": "test@test.de"
        },
        "carrier": {
          "alias": "Standard"
        },
        "attachments": [
          {
            "path": "https:\/\/test.de\/index.php",
            "type": "insert"
          }
        ],
        "shipmentIndex": 0,
        "pspBranding": true
      }
    ],
    "items": [
      {
        "components": [
          {
            "fetch": true,
            "localFile": false,
            "attributes": {
              "substrate": "P01",
              "storecode": "store_de_de",
              "packageType": "multi",
              "calendar": "wire-o"
            },
            "code": "text",
            "sourceComponentId": "D0344311_27835",
            "path": "https:\/\/test.de\/testCalendar.pdf"
          }
        ],
        "shipmentIndex": 0,
        "sourceItemId": "D0344311_27835",
        "quantity": 1,
        "sku": "KAM_F410_210x148"
      },
      {
        "components": [
          {
            "fetch": true,
            "localFile": false,
            "attributes": {
              "substrate": "P01",
              "storecode": "store_de_de",
              "packageType": "multi",
              "calendar": "wire-o"
            },
            "code": "text",
            "sourceComponentId": "D0344311_27837",
            "path": "https:\/\/test.de\/testCalendar2.pdf"
          }
        ],
        "shipmentIndex": 0,
        "sourceItemId": "D0344311_27837",
        "quantity": 1,
        "sku": "KAM_F430_210x297"
      }
    ],
    "printType": "digital",
    "sourceOrderId": "D0344311",
    "email": "test@test.de",
    "amount": 0,
    "customerName": "Test Test"
  },
  "destination": {
    "name": "schaetzl"
  }
}
