{
  "orderData": {
    "shipments": [
      {
        "shipTo": {
          "name": "Test Test",
          "address1": "Neustädter Neuer Weg 22",
          "town": "Hamburg",
          "postcode": "20459",
          "isoCountry": "DE",
          "email": "test@test.de"
        },
        "carrier": {
          "alias": "Standard"
        },
        "attachments": [
          {
            "path": "https://test.de/index.php",
            "type": "insert"
          }
        ],
        "shipmentIndex": 0,
        "pspBranding": true
      }
    ],
    "items": [
      {
        "components": [
          {
            "fetch": true,
            "localFile": false,
            "attributes": {
              "substrate": "P01",
              "storecode": "store_de_cp",
              "packageType": "single",
              "calendar": "ohne"
            },
            "code": "text",
            "sourceComponentId": "L0000604_28063",
            "path": "https://test.de/testCalendar.pdf"
          }
        ],
        "shipmentIndex": 0,
        "sourceItemId": "L0000604_28063",
        "quantity": 1,
        "sku": "ZEL_F430_210x297"
      }
    ],
    "stockItems": [
      {
        "quantity": 1,
        "code": "wooden_block_rack"
      }
    ],
    "printType": "digital",
    "sourceOrderId": "L0000604",
    "email": "test@test.de",
    "amount": 0,
    "customerName": "Test Test"
  },
  "destination": {
    "name": "schaetzl"
  }
}
